Chapter 7 Préparer les données | Outils statistiques destinés aux psychologues
…
A partir d’ici,je pourrais ouvrir le fichier excel pour voir quel est le nom de la feuille de calcul que je dois importer mais une manière plus rapide de le faire est d’utiliser la fonction excel_sheets. Deux points sont importants ici. Il faut avoir chargé le package readxl (Wickham & Bryan, 2022), ce qui normalement devrait être fait (voir la ligne 34 du script) et il faut que le fichier excel soit fermé. Dans le cas contraire, vous aurez un message vous indiquant que le fichier excel ne peut pas être ouvert alors que le chemin d’accès est correct.

excel_sheets("./introR/semantic_priming.xlsx")

## [1] "tout_direct"

En l’occurrence, il n’y a qu’une seule feuille de calcul intitulée “tout_direct”. On peut donc importer cette feuille avec la fonction read_excel. Nous devons préciser deux arguments : le chemin d’accès au fichier, c’est-à-dire le nom du fichier et la feuille de calcul que nous souhaitons importer. Ici, il est important de noter que, pour pouvoir utiliser ultérieurement les données, on va les stocker dans un objet appelé “data.xls”.

data.xls<-read_excel(path = "./introR/semantic_priming.xlsx", sheet = "tout_direct")

Ainsi, en tapant ‘data.xls’, vous identifiez qu’il s’agit d’un tibble composé de 7400 lignes et 59 variables.

data.xls

## # A tibble: 7,400 × 59
##    ExperimentName Subject Session Display.RefreshRate Group RandomSeed
##    <chr>            <dbl>   <dbl>               <dbl> <dbl>      <dbl>
##  1 direct1              1       1                60.1     1 2136425444
##  2 direct1              1       1                60.1     1 2136425444
##  3 direct1              1       1                60.1     1 2136425444
##  4 direct1              1       1                60.1     1 2136425444
##  5 direct1              1       1                60.1     1 2136425444
##  6 direct1              1       1                60.1     1 2136425444
##  7 direct1              1       1                60.1     1 2136425444
##  8 direct1              1       1                60.1     1 2136425444
##  9 direct1              1       1                60.1     1 2136425444
## 10 direct1              1       1                60.1     1 2136425444
## # ℹ 7,390 more rows
## # ℹ 53 more variables: SessionDate <chr>, SessionTime <dttm>, Block <dbl>,
## #   Attribute1 <chr>, Attribute2 <chr>, CATEGORIE <chr>, essais <chr>,
## #   essais.Cycle <chr>, essais.Sample <chr>, expe <chr>, expe.Cycle <chr>,
## #   expe.Sample <chr>, List1 <chr>, List1.Cycle <chr>, List1.Sample <chr>,
## #   Procedure <chr>, REPCORRECTE <chr>, Running <chr>, TextDisplay1.ACC <chr>,
## #   TextDisplay1.CRESP <chr>, TextDisplay1.DurationError <chr>, …
…
